{
  "YoraSlavaMorgan": {
    "habits": ["playing", "Traveling", "swimming"]
  },
  "BronislawJettaCox":{
    "habits": ["Reading", "Exercise", "Movies"]
  },"mohomeister":{
  "habits":["football","Reading","watching movies"]
}
}
